{
  "project_info": {
    "project_number": "445629727083",
    "firebase_url": "https://movil-avansat.firebaseio.com",
    "project_id": "movil-avansat",
    "storage_bucket": "movil-avansat.appspot.com"
  },
  "client": [
    {
      "client_info": {
        "mobilesdk_app_id": "1:445629727083:android:67049fecd1f9c7f0",
        "android_client_info": {
          "package_name": "com.ionicframework.glmobil133403"
        }
      },
      "oauth_client": [
        {
          "client_id": "445629727083-8m2jhcolmsjjcv8g7uopqa1df3niunkq.apps.googleusercontent.com",
          "client_type": 3
        }
      ],
      "api_key": [
        {
          "current_key": "AIzaSyDZ_7rcdNvy0D8rvFFVIVLQKd_O2eXZOCw"
        }
      ],
      "services": {
        "analytics_service": {
          "status": 1
        },
        "appinvite_service": {
          "status": 1,
          "other_platform_oauth_client": []
        },
        "ads_service": {
          "status": 2
        }
      }
    }
  ],
  "configuration_version": "1"
}